         run       event       nTopo   nIdTracks       nJets      nMuons       nElec   nTrueElec   nFakeElec       nPhot   nTruePhot   nFakePhot
      284500    87473001         118         128           4           1           9           2           7           7           4           3
      284500    87473014          85          80           6           0           9           1           8           7           4           3
      284500    87473022          38          29           4           0           5           1           4           3           2           1
      284500    87473032          27          33           4           1           9           4           5           2           1           1
      284500    87473037          60          39           7           0          10           2           8           6           4           2
      284500    87473040         101          96           9           0          17           1          16           7           4           3
      284500    87473051         142         112          12           1          13           1          12          23          16           7
      284500    87473063          62          76           5           2           6           2           4           6           4           2
      284500    87473068          26          35           1           1           0           0           0           0           0           0
      284500    87473075          72          85           6           0           5           0           5           5           4           1
      284500    87473084          83          86           7           2          15           1          14           9           4           5
      284500    87473091          43          49           3           0           2           1           1           5           2           3
      284500    87473096          72          76           3           2           2           0           2           3           2           1
      284500    87473104          61          63           6           0           6           1           5           5           4           1
      284500    87473114          93          78           7           2          13           1          12           8           5           3
      284500    87473121          93         100           6           3          16           4          12           6           5           1
      284500    87473132          81          60           9           1          10           0          10           5           5           0
      284500    87473137          81          71           8           3          15           0          15           6           6           0
      284500    87473144          83          67           7           1           6           0           6           8           5           3
      284500    87473154          89          88           7           0          10           2           8           8           4           4
      284500    87473162          52          52           3           0           7           0           7           3           2           1
      284500    87473167          74          54           6           3          12           2          10          13           8           5
      284500    87473171          82          70           8           3           4           2           2           5           3           2
      284500    87473184          74          86           5           2           7           1           6           9           5           4
      284500    87473192          54          52           4           1           7           4           3           5           4           1
